{
  "classifierPath" : "meta::pure::metamodel::type::Class",
  "content" : {
    "_type" : "class",
    "name" : "ClassificationVolker",
    "package" : "underliers",
    "properties" : [ {
      "multiplicity" : {
        "lowerBound" : 1,
        "upperBound" : 1
      },
      "name" : "family",
      "type" : "String"
    } ],
    "superTypes" : [ "underliers::Classification" ]
  }
}